wave.vcd
$date
	Fri Jun 20 16:28:48 2025
$end
$version
	Icarus Verilog
$end
$timescale
	100ps
$end
$scope module testbench $end
$var wire 1 ! ASEL $end
$var wire 1 " rst_n $end
$var wire 1 # clk $end
$var wire 1 $ W_VALID $end
$var wire 1 % W_READY $end
$var wire 1 & W_LAST $end
$var wire 32 ' W_DATA [31:0] $end
$var wire 1 ( R_VALID $end
$var wire 2 ) R_RESP [1:0] $end
$var wire 1 * R_READY $end
$var wire 1 + R_LAST $end
$var wire 32 , R_DATA [31:0] $end
$var wire 1 - RF_WREQ $end
$var wire 1 . RF_WERROR $end
$var wire 32 / RF_WDATA [31:0] $end
$var wire 32 0 RF_WADDR [31:0] $end
$var wire 1 1 RF_WACK $end
$var wire 1 2 RF_RREQ $end
$var wire 1 3 RF_RERROR $end
$var wire 32 4 RF_RDATA [31:0] $end
$var wire 32 5 RF_RADDR [31:0] $end
$var wire 1 6 RF_RACK $end
$var wire 1 7 MC_WREQ $end
$var wire 1 8 MC_WERROR $end
$var wire 32 9 MC_WDATA [31:0] $end
$var wire 32 : MC_WADDR [31:0] $end
$var wire 1 ; MC_WACK $end
$var wire 1 < MC_RREQ $end
$var wire 1 = MC_RERROR $end
$var wire 32 > MC_RDATA [31:0] $end
$var wire 32 ? MC_RADDR [31:0] $end
$var wire 1 @ MC_RACK $end
$var wire 1 A MC_BACK $end
$var wire 1 B B_VALID $end
$var wire 2 C B_RESP [1:0] $end
$var wire 1 D B_READY $end
$var wire 1 E AW_VALID $end
$var wire 3 F AW_SIZE [2:0] $end
$var wire 1 G AW_READY $end
$var wire 8 H AW_LEN [7:0] $end
$var wire 2 I AW_BURST [1:0] $end
$var wire 32 J AW_ADDR [31:0] $end
$var wire 1 K AR_VALID $end
$var wire 3 L AR_SIZE [2:0] $end
$var wire 1 M AR_READY $end
$var wire 8 N AR_LEN [7:0] $end
$var wire 2 O AR_BURST [1:0] $end
$var wire 32 P AR_ADDR [31:0] $end
$var parameter 32 Q ADDRWIDTH_SRAM $end
$var parameter 32 R ADDR_WIDTH $end
$var parameter 32 S BASEADDR_SRAM $end
$var parameter 32 T CLK_PERIOD $end
$var parameter 32 U DATA_WIDTH $end
$var parameter 32 V REGS_NUM_SRAM $end
$var parameter 32 W RST_LENGTH $end
$scope module AXI_MASTER_IF0 $end
$var wire 1 A MC_BACK $end
$var wire 1 ; MC_WACK $end
$var wire 1 % W_READY $end
$var wire 1 ( R_VALID $end
$var wire 2 X R_RESP [1:0] $end
$var wire 1 + R_LAST $end
$var wire 32 Y R_DATA [31:0] $end
$var wire 1 7 MC_WREQ $end
$var wire 1 8 MC_WERROR $end
$var wire 32 Z MC_WDATA [31:0] $end
$var wire 32 [ MC_WADDR [31:0] $end
$var wire 1 < MC_RREQ $end
$var wire 1 = MC_RERROR $end
$var wire 32 \ MC_RADDR [31:0] $end
$var wire 1 B B_VALID $end
$var wire 2 ] B_RESP [1:0] $end
$var wire 1 G AW_READY $end
$var wire 1 M AR_READY $end
$var wire 1 " ARESETn $end
$var wire 1 # ACLK $end
$var parameter 32 ^ ADDR_WIDTH $end
$var parameter 32 _ DATA_WIDTH $end
$var parameter 4 ` STR_ADDR $end
$var parameter 4 a STR_DATA $end
$var parameter 4 b STR_END $end
$var parameter 4 c STR_IDLE $end
$var parameter 3 d STWA_ADDR $end
$var parameter 3 e STWA_IDLE $end
$var parameter 3 f STWA_WAIT $end
$var parameter 4 g STW_DATA $end
$var parameter 4 h STW_IDLE $end
$var parameter 4 i STW_RESP $end
$var parameter 4 j STW_WAIT $end
$var reg 32 k AR_ADDR [31:0] $end
$var reg 2 l AR_BURST [1:0] $end
$var reg 8 m AR_LEN [7:0] $end
$var reg 3 n AR_SIZE [2:0] $end
$var reg 1 K AR_VALID $end
$var reg 32 o AW_ADDR [31:0] $end
$var reg 2 p AW_BURST [1:0] $end
$var reg 8 q AW_LEN [7:0] $end
$var reg 3 r AW_SIZE [2:0] $end
$var reg 1 E AW_VALID $end
$var reg 1 D B_READY $end
$var reg 1 @ MC_RACK $end
$var reg 32 s MC_RDATA [31:0] $end
$var reg 1 * R_READY $end
$var reg 32 t W_DATA [31:0] $end
$var reg 1 & W_LAST $end
$var reg 1 $ W_VALID $end
$var reg 4 u str_cur [3:0] $end
$var reg 4 v str_next [3:0] $end
$var reg 4 w stw_cur [3:0] $end
$var reg 4 x stw_next [3:0] $end
$var reg 3 y stwa_cur [2:0] $end
$var reg 3 z stwa_next [2:0] $end
$var reg 1 { w_addr_over $end
$upscope $end
$scope module AXI_SLAVE_IF0 $end
$var wire 32 | AR_ADDR [31:0] $end
$var wire 2 } AR_BURST [1:0] $end
$var wire 8 ~ AR_LEN [7:0] $end
$var wire 1 M AR_READY $end
$var wire 3 !" AR_SIZE [2:0] $end
$var wire 1 K AR_VALID $end
$var wire 1 ! ASEL $end
$var wire 32 "" AW_ADDR [31:0] $end
$var wire 2 #" AW_BURST [1:0] $end
$var wire 8 $" AW_LEN [7:0] $end
$var wire 3 %" AW_SIZE [2:0] $end
$var wire 1 E AW_VALID $end
$var wire 1 D B_READY $end
$var wire 1 * R_READY $end
$var wire 32 &" W_DATA [31:0] $end
$var wire 1 & W_LAST $end
$var wire 1 % W_READY $end
$var wire 1 $ W_VALID $end
$var wire 1 . RF_WERROR $end
$var wire 1 1 RF_WACK $end
$var wire 1 3 RF_RERROR $end
$var wire 32 '" RF_RDATA [31:0] $end
$var wire 1 6 RF_RACK $end
$var wire 1 G AW_READY $end
$var wire 1 " ARESETn $end
$var wire 1 # ACLK $end
$var parameter 32 (" ADDR_WIDTH $end
$var parameter 32 )" DATA_WIDTH $end
$var parameter 4 *" STR_ADDR $end
$var parameter 4 +" STR_DATA $end
$var parameter 4 ," STR_END $end
$var parameter 4 -" STR_IDLE $end
$var parameter 3 ." STWA_ADDR $end
$var parameter 3 /" STWA_IDLE $end
$var parameter 3 0" STWA_WAIT $end
$var parameter 4 1" STW_DATA $end
$var parameter 4 2" STW_IDLE $end
$var parameter 4 3" STW_RESP $end
$var parameter 4 4" STW_WAIT $end
$var reg 2 5" B_RESP [1:0] $end
$var reg 1 B B_VALID $end
$var reg 32 6" RF_RADDR [31:0] $end
$var reg 1 2 RF_RREQ $end
$var reg 32 7" RF_WADDR [31:0] $end
$var reg 32 8" RF_WDATA [31:0] $end
$var reg 1 - RF_WREQ $end
$var reg 32 9" R_DATA [31:0] $end
$var reg 1 + R_LAST $end
$var reg 2 :" R_RESP [1:0] $end
$var reg 1 ( R_VALID $end
$var reg 4 ;" str_cur [3:0] $end
$var reg 4 <" str_next [3:0] $end
$var reg 4 =" stw_cur [3:0] $end
$var reg 4 >" stw_next [3:0] $end
$var reg 3 ?" stwa_cur [2:0] $end
$var reg 3 @" stwa_next [2:0] $end
$var reg 1 A" w_addr_over $end
$upscope $end
$scope module Clock_Reset0 $end
$var parameter 32 B" CLK2_PERIOD $end
$var parameter 32 C" CLK_PERIOD $end
$var parameter 32 D" RST2_LENGTH $end
$var parameter 32 E" RST_LENGTH $end
$var reg 1 # clk $end
$var reg 1 F" clk2 $end
$var reg 1 G" rst2_n $end
$var reg 1 " rst_n $end
$upscope $end
$scope module Master_Controller0 $end
$var wire 1 A MC_BACK $end
$var wire 1 @ MC_RACK $end
$var wire 32 H" MC_RDATA [31:0] $end
$var wire 1 = MC_RERROR $end
$var wire 1 ; MC_WACK $end
$var wire 1 8 MC_WERROR $end
$var wire 1 # clk $end
$var wire 1 " rst_n $end
$var parameter 32 I" ADDR_WIDTH $end
$var parameter 32 J" BASEADDR $end
$var parameter 32 K" CLK_PERIOD $end
$var parameter 32 L" DATA_WIDTH $end
$var parameter 32 M" REGS_NUM $end
$var reg 32 N" MC_RADDR [31:0] $end
$var reg 1 < MC_RREQ $end
$var reg 32 O" MC_WADDR [31:0] $end
$var reg 32 P" MC_WDATA [31:0] $end
$var reg 1 7 MC_WREQ $end
$var reg 32 Q" ret_data [31:0] $end
$scope task MC_READ $end
$var reg 32 R" t_addr [31:0] $end
$var reg 32 S" t_data [31:0] $end
$upscope $end
$scope task MC_WRITE $end
$var reg 32 T" t_addr [31:0] $end
$var reg 32 U" t_data [31:0] $end
$upscope $end
$upscope $end
$scope module Slave_RegFile0 $end
$var wire 1 6 RF_RACK $end
$var wire 16 V" RF_RADDR [15:0] $end
$var wire 1 2 RF_RREQ $end
$var wire 1 1 RF_WACK $end
$var wire 16 W" RF_WADDR [15:0] $end
$var wire 32 X" RF_WDATA [31:0] $end
$var wire 1 - RF_WREQ $end
$var wire 1 # clk $end
$var wire 1 " rst_n $end
$var wire 16 Y" w_addr_index [15:0] $end
$var wire 16 Z" r_addr_index [15:0] $end
$var parameter 32 [" ADDR_WIDTH $end
$var parameter 32 \" DATA_WIDTH $end
$var parameter 32 ]" REGS_NUM $end
$var parameter 32 ^" R_WAIT_CYCLE $end
$var parameter 32 _" W_WAIT_CYCLE $end
$var reg 32 `" RF_RDATA [31:0] $end
$var reg 1 3 RF_RERROR $end
$var reg 1 . RF_WERROR $end
$var reg 4 a" r_wait_cnt [3:0] $end
$var reg 4 b" w_wait_cnt [3:0] $end
$upscope $end
$upscope $end
$enddefinitions $end
$comment Show the parameter values. $end
$dumpall
b0 _"
b0 ^"
b100000000 ]"
b100000 \"
b10000 ["
b100000000 M"
b100000 L"
b1010 K"
b100000000000000000000000000000 J"
b100000 I"
b1 E"
b1010 D"
b1010 C"
b10100 B"
b100 4"
b1000 3"
b1 2"
b10 1"
b100 0"
b1 /"
b10 ."
b1 -"
b1000 ,"
b100 +"
b10 *"
b100000 )"
b100000 ("
b100 j
b1000 i
b1 h
b10 g
b100 f
b1 e
b10 d
b1 c
b1000 b
b100 a
b10 `
b100000 _
b100000 ^
b1 W
b100000000 V
b100000 U
b1010 T
b100000000000000000000000000000 S
b100000 R
b10000 Q
$end
#0
$dumpvars
bx b"
bx a"
bx `"
b0xxxxxxxxxxxxxx Z"
b0xxxxxxxxxxxxxx Y"
bx X"
bx W"
bx V"
bx U"
bx T"
bx S"
bx R"
bx Q"
b0 P"
b100 O"
b100 N"
bx H"
xG"
1F"
xA"
bx @"
bx ?"
bx >"
bx ="
bx <"
bx ;"
bx :"
bx 9"
bx 8"
bx 7"
bx 6"
bx 5"
bx '"
bx &"
bx %"
bx $"
bx #"
bx ""
bx !"
bx ~
bx }
bx |
x{
b1 z
bx y
b1 x
bx w
b1 v
bx u
bx t
bx s
bx r
bx q
bx p
bx o
bx n
bx m
bx l
bx k
bx ]
b100 \
b100 [
b0 Z
bx Y
bx X
bx P
bx O
bx N
xM
bx L
xK
bx J
bx I
bx H
xG
bx F
xE
xD
bx C
xB
xA
x@
b100 ?
bx >
x=
0<
x;
b100 :
b0 9
x8
07
x6
bx 5
bx 4
x3
x2
x1
bx 0
bx /
x.
x-
bx ,
x+
x*
bx )
x(
bx '
x&
x%
x$
1#
x"
x!
$end
#10
0!
b1 Y"
b1 Z"
0;
0M
0G
b100 W"
b1 >"
0A
b1 @"
08
0%
b1 <"
0=
b100 V"
01
06
b1 y
0E
b100 J
b100 o
b100 ""
b0 H
b0 q
b0 $"
b1 I
b1 p
b1 #"
b10 F
b10 r
b10 %"
0{
b1 w
0D
0$
1&
b0 '
b0 t
b0 &"
b1 u
0*
0K
b100 P
b100 k
b100 |
b0 N
b0 m
b0 ~
b1 O
b1 l
b1 }
b10 L
b10 n
b10 !"
0@
b0 >
b0 s
b0 H"
b1 ?"
0A"
b100 0
b100 7"
b1 ="
0B
b0 C
b0 ]
b0 5"
b0 /
b0 8"
b0 X"
0-
b1 ;"
b0 )
b0 X
b0 :"
1+
b0 ,
b0 Y
b0 9"
0(
b100 5
b100 6"
02
b0 b"
b0 a"
0.
03
b0 4
b0 '"
b0 `"
0G"
0"
#50
0#
#100
1#
0F"
#110
1"
#150
0#
#200
b10 x
b10 z
b10100101010110100101101010100101 9
b10100101010110100101101010100101 Z
b10100101010110100101101010100101 P"
b100000000000000000000000000000 :
b100000000000000000000000000000 [
b100000000000000000000000000000 O"
17
b10100101010110100101101010100101 U"
b100000000000000000000000000000 T"
1#
1F"
#250
0#
#300
b10 >"
b10 @"
1!
1$
b10100101010110100101101010100101 '
b10100101010110100101101010100101 t
b10100101010110100101101010100101 &"
b10 w
1{
1E
b100000000000000000000000000000 J
b100000000000000000000000000000 o
b100000000000000000000000000000 ""
b10 y
1#
0F"
#350
0#
#400
1;
b100 x
b100 z
b0 Y"
1%
b100 @"
1G
b0 W"
b100 >"
11
b10 ?"
1A"
b100000000000000000000000000000 0
b100000000000000000000000000000 7"
b10 ="
1-
b10100101010110100101101010100101 /
b10100101010110100101101010100101 8"
b10100101010110100101101010100101 X"
1#
1F"
#450
0#
#500
01
0%
0G
b1000 >"
0;
b1000 x
0-
b100 ="
b100 ?"
0$
b100 w
0E
b100 y
1#
0F"
#550
0#
#600
b1 >"
1A
b1 x
b1 z
b1 @"
b1000 w
1D
b1000 ="
1B
1#
1F"
#650
0#
#700
0A
0B
b1 ="
0A"
b1 ?"
0D
b1 w
0{
b1 y
07
1#
0F"
#750
0#
#800
1#
1F"
#850
0#
#900
b10 x
b10 z
b10001000100010001000100010001 9
b10001000100010001000100010001 Z
b10001000100010001000100010001 P"
b100000000000000000000000000100 :
b100000000000000000000000000100 [
b100000000000000000000000000100 O"
17
b10001000100010001000100010001 U"
b100000000000000000000000000100 T"
1#
0F"
#950
0#
#1000
b10 @"
b10 >"
b10 y
1E
b100000000000000000000000000100 J
b100000000000000000000000000100 o
b100000000000000000000000000100 ""
1{
b10 w
1$
b10001000100010001000100010001 '
b10001000100010001000100010001 t
b10001000100010001000100010001 &"
1#
1F"
#1050
0#
#1100
1;
b100 x
1%
b100 >"
b1 Y"
b100 z
11
b100 W"
b100 @"
1G
1-
b10001000100010001000100010001 /
b10001000100010001000100010001 8"
b10001000100010001000100010001 X"
b10 ="
b100000000000000000000000000100 0
b100000000000000000000000000100 7"
1A"
b10 ?"
1#
0F"
#1150
0#
#1200
b1000 x
0;
0G
b1000 >"
01
0%
b100 y
0E
b100 w
0$
b100 ?"
b100 ="
0-
1#
1F"
#1250
0#
#1300
b1 z
b1 >"
b1 @"
1A
b1 x
1B
b1000 ="
1D
b1000 w
1#
0F"
#1350
0#
#1400
0A
b1 y
0{
b1 w
0D
b1 ?"
0A"
b1 ="
0B
07
1#
1F"
#1450
0#
#1500
1#
0F"
#1550
0#
#1600
b10 x
b10 z
b100010001000100010001000100010 9
b100010001000100010001000100010 Z
b100010001000100010001000100010 P"
b100000000000000000000000001000 :
b100000000000000000000000001000 [
b100000000000000000000000001000 O"
17
b100010001000100010001000100010 U"
b100000000000000000000000001000 T"
1#
1F"
#1650
0#
#1700
b10 >"
b10 @"
1$
b100010001000100010001000100010 '
b100010001000100010001000100010 t
b100010001000100010001000100010 &"
b10 w
1{
1E
b100000000000000000000000001000 J
b100000000000000000000000001000 o
b100000000000000000000000001000 ""
b10 y
1#
0F"
#1750
0#
#1800
1;
b100 x
b100 z
b10 Y"
1%
b100 @"
1G
b1000 W"
b100 >"
11
b10 ?"
1A"
b100000000000000000000000001000 0
b100000000000000000000000001000 7"
b10 ="
1-
b100010001000100010001000100010 /
b100010001000100010001000100010 8"
b100010001000100010001000100010 X"
1#
1F"
#1850
0#
#1900
01
0%
0G
b1000 >"
0;
b1000 x
0-
b100 ="
b100 ?"
0$
b100 w
0E
b100 y
1#
0F"
#1950
0#
#2000
b1 >"
1A
b1 x
b1 z
b1 @"
b1000 w
1D
b1000 ="
1B
1#
1F"
#2010
1G"
#2050
0#
#2100
0A
0B
b1 ="
0A"
b1 ?"
0D
b1 w
0{
b1 y
07
1#
0F"
#2150
0#
#2200
1#
1F"
#2250
0#
#2300
b10 x
b10 z
b110011001100110011001100110011 9
b110011001100110011001100110011 Z
b110011001100110011001100110011 P"
b100000000000000000000000001100 :
b100000000000000000000000001100 [
b100000000000000000000000001100 O"
17
b110011001100110011001100110011 U"
b100000000000000000000000001100 T"
1#
0F"
#2350
0#
#2400
b10 @"
b10 >"
b10 y
1E
b100000000000000000000000001100 J
b100000000000000000000000001100 o
b100000000000000000000000001100 ""
1{
b10 w
1$
b110011001100110011001100110011 '
b110011001100110011001100110011 t
b110011001100110011001100110011 &"
1#
1F"
#2450
0#
#2500
1;
b100 x
1%
b100 >"
b11 Y"
b100 z
11
b1100 W"
b100 @"
1G
1-
b110011001100110011001100110011 /
b110011001100110011001100110011 8"
b110011001100110011001100110011 X"
b10 ="
b100000000000000000000000001100 0
b100000000000000000000000001100 7"
1A"
b10 ?"
1#
0F"
#2550
0#
#2600
b1000 x
0;
0G
b1000 >"
01
0%
b100 y
0E
b100 w
0$
b100 ?"
b100 ="
0-
1#
1F"
#2650
0#
#2700
b1 z
b1 >"
b1 @"
1A
b1 x
1B
b1000 ="
1D
b1000 w
1#
0F"
#2750
0#
#2800
0A
b1 y
0{
b1 w
0D
b1 ?"
0A"
b1 ="
0B
07
1#
1F"
#2850
0#
#2900
1#
0F"
#2950
0#
#3000
b10 x
b10 z
b1000100010001000100010001000100 9
b1000100010001000100010001000100 Z
b1000100010001000100010001000100 P"
b100000000000000000000000010000 :
b100000000000000000000000010000 [
b100000000000000000000000010000 O"
17
b1000100010001000100010001000100 U"
b100000000000000000000000010000 T"
1#
1F"
#3050
0#
#3100
b10 >"
b10 @"
1$
b1000100010001000100010001000100 '
b1000100010001000100010001000100 t
b1000100010001000100010001000100 &"
b10 w
1{
1E
b100000000000000000000000010000 J
b100000000000000000000000010000 o
b100000000000000000000000010000 ""
b10 y
1#
0F"
#3150
0#
#3200
1;
b100 x
b100 z
b100 Y"
1%
b100 @"
1G
b10000 W"
b100 >"
11
b10 ?"
1A"
b100000000000000000000000010000 0
b100000000000000000000000010000 7"
b10 ="
1-
b1000100010001000100010001000100 /
b1000100010001000100010001000100 8"
b1000100010001000100010001000100 X"
1#
1F"
#3250
0#
#3300
01
0%
0G
b1000 >"
0;
b1000 x
0-
b100 ="
b100 ?"
0$
b100 w
0E
b100 y
1#
0F"
#3350
0#
#3400
b1 >"
1A
b1 x
b1 z
b1 @"
b1000 w
1D
b1000 ="
1B
1#
1F"
#3450
0#
#3500
0A
0B
b1 ="
0A"
b1 ?"
0D
b1 w
0{
b1 y
07
1#
0F"
#3550
0#
#3600
1#
1F"
#3650
0#
#3700
b10 x
b10 z
b1010101010101010101010101010101 9
b1010101010101010101010101010101 Z
b1010101010101010101010101010101 P"
b100000000000000000000000010100 :
b100000000000000000000000010100 [
b100000000000000000000000010100 O"
17
b1010101010101010101010101010101 U"
b100000000000000000000000010100 T"
1#
0F"
#3750
0#
#3800
b10 @"
b10 >"
b10 y
1E
b100000000000000000000000010100 J
b100000000000000000000000010100 o
b100000000000000000000000010100 ""
1{
b10 w
1$
b1010101010101010101010101010101 '
b1010101010101010101010101010101 t
b1010101010101010101010101010101 &"
1#
1F"
#3850
0#
#3900
1;
b100 x
1%
b100 >"
b101 Y"
b100 z
11
b10100 W"
b100 @"
1G
1-
b1010101010101010101010101010101 /
b1010101010101010101010101010101 8"
b1010101010101010101010101010101 X"
b10 ="
b100000000000000000000000010100 0
b100000000000000000000000010100 7"
1A"
b10 ?"
1#
0F"
#3950
0#
#4000
b1000 x
0;
0G
b1000 >"
01
0%
b100 y
0E
b100 w
0$
b100 ?"
b100 ="
0-
1#
1F"
#4050
0#
#4100
b1 z
b1 >"
b1 @"
1A
b1 x
1B
b1000 ="
1D
b1000 w
1#
0F"
#4150
0#
#4200
0A
b1 y
0{
b1 w
0D
b1 ?"
0A"
b1 ="
0B
07
1#
1F"
#4250
0#
#4300
1#
0F"
#4350
0#
#4400
b10 x
b10 z
b1100110011001100110011001100110 9
b1100110011001100110011001100110 Z
b1100110011001100110011001100110 P"
b100000000000000000000000011000 :
b100000000000000000000000011000 [
b100000000000000000000000011000 O"
17
b1100110011001100110011001100110 U"
b100000000000000000000000011000 T"
1#
1F"
#4450
0#
#4500
b10 >"
b10 @"
1$
b1100110011001100110011001100110 '
b1100110011001100110011001100110 t
b1100110011001100110011001100110 &"
b10 w
1{
1E
b100000000000000000000000011000 J
b100000000000000000000000011000 o
b100000000000000000000000011000 ""
b10 y
1#
0F"
#4550
0#
#4600
1;
b100 x
b100 z
b110 Y"
1%
b100 @"
1G
b11000 W"
b100 >"
11
b10 ?"
1A"
b100000000000000000000000011000 0
b100000000000000000000000011000 7"
b10 ="
1-
b1100110011001100110011001100110 /
b1100110011001100110011001100110 8"
b1100110011001100110011001100110 X"
1#
1F"
#4650
0#
#4700
01
0%
0G
b1000 >"
0;
b1000 x
0-
b100 ="
b100 ?"
0$
b100 w
0E
b100 y
1#
0F"
#4750
0#
#4800
b1 >"
1A
b1 x
b1 z
b1 @"
b1000 w
1D
b1000 ="
1B
1#
1F"
#4850
0#
#4900
0A
0B
b1 ="
0A"
b1 ?"
0D
b1 w
0{
b1 y
07
1#
0F"
#4950
0#
#5000
1#
1F"
#5050
0#
#5100
b10 x
b10 z
b1110111011101110111011101110111 9
b1110111011101110111011101110111 Z
b1110111011101110111011101110111 P"
b100000000000000000000000011100 :
b100000000000000000000000011100 [
b100000000000000000000000011100 O"
17
b1110111011101110111011101110111 U"
b100000000000000000000000011100 T"
1#
0F"
#5150
0#
#5200
b10 @"
b10 >"
b10 y
1E
b100000000000000000000000011100 J
b100000000000000000000000011100 o
b100000000000000000000000011100 ""
1{
b10 w
1$
b1110111011101110111011101110111 '
b1110111011101110111011101110111 t
b1110111011101110111011101110111 &"
1#
1F"
#5250
0#
#5300
1;
b100 x
1%
b100 >"
b111 Y"
b100 z
11
b11100 W"
b100 @"
1G
1-
b1110111011101110111011101110111 /
b1110111011101110111011101110111 8"
b1110111011101110111011101110111 X"
b10 ="
b100000000000000000000000011100 0
b100000000000000000000000011100 7"
1A"
b10 ?"
1#
0F"
#5350
0#
#5400
b1000 x
0;
0G
b1000 >"
01
0%
b100 y
0E
b100 w
0$
b100 ?"
b100 ="
0-
1#
1F"
#5450
0#
#5500
b1 z
b1 >"
b1 @"
1A
b1 x
1B
b1000 ="
1D
b1000 w
1#
0F"
#5550
0#
#5600
0A
b1 y
0{
b1 w
0D
b1 ?"
0A"
b1 ="
0B
07
1#
1F"
#5650
0#
#5700
1#
0F"
#5750
0#
#5800
b10 x
b10 z
b10001000100010001000100010001000 9
b10001000100010001000100010001000 Z
b10001000100010001000100010001000 P"
b100000000000000000000000100000 :
b100000000000000000000000100000 [
b100000000000000000000000100000 O"
17
b10001000100010001000100010001000 U"
b100000000000000000000000100000 T"
1#
1F"
#5850
0#
#5900
b10 >"
b10 @"
1$
b10001000100010001000100010001000 '
b10001000100010001000100010001000 t
b10001000100010001000100010001000 &"
b10 w
1{
1E
b100000000000000000000000100000 J
b100000000000000000000000100000 o
b100000000000000000000000100000 ""
b10 y
1#
0F"
#5950
0#
#6000
1;
b100 x
b100 z
b1000 Y"
1%
b100 @"
1G
b100000 W"
b100 >"
11
b10 ?"
1A"
b100000000000000000000000100000 0
b100000000000000000000000100000 7"
b10 ="
1-
b10001000100010001000100010001000 /
b10001000100010001000100010001000 8"
b10001000100010001000100010001000 X"
1#
1F"
#6050
0#
#6100
01
0%
0G
b1000 >"
0;
b1000 x
0-
b100 ="
b100 ?"
0$
b100 w
0E
b100 y
1#
0F"
#6150
0#
#6200
b1 >"
1A
b1 x
b1 z
b1 @"
b1000 w
1D
b1000 ="
1B
1#
1F"
#6250
0#
#6300
0A
0B
b1 ="
0A"
b1 ?"
0D
b1 w
0{
b1 y
07
1#
0F"
#6350
0#
#6400
1#
1F"
#6450
0#
#6500
b10 x
b10 z
b10011001100110011001100110011001 9
b10011001100110011001100110011001 Z
b10011001100110011001100110011001 P"
b100000000000000000000000100100 :
b100000000000000000000000100100 [
b100000000000000000000000100100 O"
17
b10011001100110011001100110011001 U"
b100000000000000000000000100100 T"
1#
0F"
#6550
0#
#6600
b10 @"
b10 >"
b10 y
1E
b100000000000000000000000100100 J
b100000000000000000000000100100 o
b100000000000000000000000100100 ""
1{
b10 w
1$
b10011001100110011001100110011001 '
b10011001100110011001100110011001 t
b10011001100110011001100110011001 &"
1#
1F"
#6650
0#
#6700
1;
b100 x
1%
b100 >"
b1001 Y"
b100 z
11
b100100 W"
b100 @"
1G
1-
b10011001100110011001100110011001 /
b10011001100110011001100110011001 8"
b10011001100110011001100110011001 X"
b10 ="
b100000000000000000000000100100 0
b100000000000000000000000100100 7"
1A"
b10 ?"
1#
0F"
#6750
0#
#6800
b1000 x
0;
0G
b1000 >"
01
0%
b100 y
0E
b100 w
0$
b100 ?"
b100 ="
0-
1#
1F"
#6850
0#
#6900
b1 z
b1 >"
b1 @"
1A
b1 x
1B
b1000 ="
1D
b1000 w
1#
0F"
#6950
0#
#7000
0A
b1 y
0{
b1 w
0D
b1 ?"
0A"
b1 ="
0B
07
1#
1F"
#7050
0#
#7100
1#
0F"
#7150
0#
#7200
b10 x
b10 z
b10101010101010101010101010101010 9
b10101010101010101010101010101010 Z
b10101010101010101010101010101010 P"
b100000000000000000000000101000 :
b100000000000000000000000101000 [
b100000000000000000000000101000 O"
17
b10101010101010101010101010101010 U"
b100000000000000000000000101000 T"
1#
1F"
#7250
0#
#7300
b10 >"
b10 @"
1$
b10101010101010101010101010101010 '
b10101010101010101010101010101010 t
b10101010101010101010101010101010 &"
b10 w
1{
1E
b100000000000000000000000101000 J
b100000000000000000000000101000 o
b100000000000000000000000101000 ""
b10 y
1#
0F"
#7350
0#
#7400
1;
b100 x
b100 z
b1010 Y"
1%
b100 @"
1G
b101000 W"
b100 >"
11
b10 ?"
1A"
b100000000000000000000000101000 0
b100000000000000000000000101000 7"
b10 ="
1-
b10101010101010101010101010101010 /
b10101010101010101010101010101010 8"
b10101010101010101010101010101010 X"
1#
1F"
#7450
0#
#7500
01
0%
0G
b1000 >"
0;
b1000 x
0-
b100 ="
b100 ?"
0$
b100 w
0E
b100 y
1#
0F"
#7550
0#
#7600
b1 >"
1A
b1 x
b1 z
b1 @"
b1000 w
1D
b1000 ="
1B
1#
1F"
#7650
0#
#7700
0A
0B
b1 ="
0A"
b1 ?"
0D
b1 w
0{
b1 y
07
1#
0F"
#7750
0#
#7800
1#
1F"
#7850
0#
#7900
b10 x
b10 z
b10111011101110111011101110111011 9
b10111011101110111011101110111011 Z
b10111011101110111011101110111011 P"
b100000000000000000000000101100 :
b100000000000000000000000101100 [
b100000000000000000000000101100 O"
17
b10111011101110111011101110111011 U"
b100000000000000000000000101100 T"
1#
0F"
#7950
0#
#8000
b10 @"
b10 >"
b10 y
1E
b100000000000000000000000101100 J
b100000000000000000000000101100 o
b100000000000000000000000101100 ""
1{
b10 w
1$
b10111011101110111011101110111011 '
b10111011101110111011101110111011 t
b10111011101110111011101110111011 &"
1#
1F"
#8050
0#
#8100
1;
b100 x
1%
b100 >"
b1011 Y"
b100 z
11
b101100 W"
b100 @"
1G
1-
b10111011101110111011101110111011 /
b10111011101110111011101110111011 8"
b10111011101110111011101110111011 X"
b10 ="
b100000000000000000000000101100 0
b100000000000000000000000101100 7"
1A"
b10 ?"
1#
0F"
#8150
0#
#8200
b1000 x
0;
0G
b1000 >"
01
0%
b100 y
0E
b100 w
0$
b100 ?"
b100 ="
0-
1#
1F"
#8250
0#
#8300
b1 z
b1 >"
b1 @"
1A
b1 x
1B
b1000 ="
1D
b1000 w
1#
0F"
#8350
0#
#8400
0A
b1 y
0{
b1 w
0D
b1 ?"
0A"
b1 ="
0B
07
1#
1F"
#8450
0#
#8500
1#
0F"
#8550
0#
#8600
b10 x
b10 z
b11001100110011001100110011001100 9
b11001100110011001100110011001100 Z
b11001100110011001100110011001100 P"
b100000000000000000000000110000 :
b100000000000000000000000110000 [
b100000000000000000000000110000 O"
17
b11001100110011001100110011001100 U"
b100000000000000000000000110000 T"
1#
1F"
#8650
0#
#8700
b10 >"
b10 @"
1$
b11001100110011001100110011001100 '
b11001100110011001100110011001100 t
b11001100110011001100110011001100 &"
b10 w
1{
1E
b100000000000000000000000110000 J
b100000000000000000000000110000 o
b100000000000000000000000110000 ""
b10 y
1#
0F"
#8750
0#
#8800
1;
b100 x
b100 z
b1100 Y"
1%
b100 @"
1G
b110000 W"
b100 >"
11
b10 ?"
1A"
b100000000000000000000000110000 0
b100000000000000000000000110000 7"
b10 ="
1-
b11001100110011001100110011001100 /
b11001100110011001100110011001100 8"
b11001100110011001100110011001100 X"
1#
1F"
#8850
0#
#8900
01
0%
0G
b1000 >"
0;
b1000 x
0-
b100 ="
b100 ?"
0$
b100 w
0E
b100 y
1#
0F"
#8950
0#
#9000
b1 >"
1A
b1 x
b1 z
b1 @"
b1000 w
1D
b1000 ="
1B
1#
1F"
#9050
0#
#9100
0A
0B
b1 ="
0A"
b1 ?"
0D
b1 w
0{
b1 y
07
1#
0F"
#9150
0#
#9200
1#
1F"
#9250
0#
#9300
b10 x
b10 z
b11011101110111011101110111011101 9
b11011101110111011101110111011101 Z
b11011101110111011101110111011101 P"
b100000000000000000000000110100 :
b100000000000000000000000110100 [
b100000000000000000000000110100 O"
17
b11011101110111011101110111011101 U"
b100000000000000000000000110100 T"
1#
0F"
#9350
0#
#9400
b10 @"
b10 >"
b10 y
1E
b100000000000000000000000110100 J
b100000000000000000000000110100 o
b100000000000000000000000110100 ""
1{
b10 w
1$
b11011101110111011101110111011101 '
b11011101110111011101110111011101 t
b11011101110111011101110111011101 &"
1#
1F"
#9450
0#
#9500
1;
b100 x
1%
b100 >"
b1101 Y"
b100 z
11
b110100 W"
b100 @"
1G
1-
b11011101110111011101110111011101 /
b11011101110111011101110111011101 8"
b11011101110111011101110111011101 X"
b10 ="
b100000000000000000000000110100 0
b100000000000000000000000110100 7"
1A"
b10 ?"
1#
0F"
